2019-09-12 10:32:09	service: /HosApp/alpha/?/appointmentList	data: {"hospitalNumber":"0454728","language":"TH"}
======================================================================================================================================================
2019-09-12 15:34:55	service: /HosApp/alpha/?/paymentList	data: {"hospitalNumber":"1991478","language":"TH","citizenId":"2939900010238"}
======================================================================================================================================================
2019-09-12 15:49:26	service: /HosApp/alpha/?/requestPaymentNotification	data: {"invoice":{"citizenId":"2939900010238","hospitalNumber":"1991478","invoiceId":"00004","invoiceDateTime":"2019-09-0411:15:11","performDate":"2019-09-04","payable":1,"moreDetail":"รายละเอียดเพิ่มเติมในการแจ้งชำระเงิน","eligible":"สิทธิการรักษา","remark":"หมายเหตุเพิ่มเติมกรณีเก็บเงินไม่ได้","doctor":"ชื่อผู้สั่ง","clinic":"ชื่อคลินิกที่สั่ง","serviceDeliveryLocationCode":"รหัสหน่วยตรวจ","serviceDeliveryLocationName":"ชื่อหน่วยตรวจ"},"billList":[{"billName":"1991478","amountInRight":1500,"amountOverRight":2100,"roundOff":0,"performStatus":1}]}
======================================================================================================================================================
2019-09-12 15:49:40	service: /HosApp/alpha/?/requestPaymentNotification	data: {"invoice":{"hospitalNumber":"1991478","invoiceId":"0000004","performDate":"2019-09-15","invoiceDateTime":"2019-09-1511:38:00","moreDetail":"หนี้มาแล้วจ้าา!","payable":1,"station":"HosApp","remark":""},"billList":[{"billName":"ค่ายา","amountInRight":1000.00,"amountOverRight":0.00,"performStatus":1}]}
======================================================================================================================================================
2019-09-12 15:50:07	service: /HosApp/alpha/?/requestPaymentNotification	data: {"invoice":{"citizenId":"2939900010238","hospitalNumber":"1991478","invoiceId":"00004","invoiceDateTime":"2019-09-0411:15:11","performDate":"2019-09-04","payable":1,"moreDetail":"รายละเอียดเพิ่มเติมในการแจ้งชำระเงิน","eligible":"สิทธิการรักษา","remark":"หมายเหตุเพิ่มเติมกรณีเก็บเงินไม่ได้","doctor":"ชื่อผู้สั่ง","clinic":"ชื่อคลินิกที่สั่ง","serviceDeliveryLocationCode":"รหัสหน่วยตรวจ","serviceDeliveryLocationName":"ชื่อหน่วยตรวจ"},"billList":[{"billName":"1991478","amountInRight":1500,"amountOverRight":2100,"roundOff":0,"performStatus":1}]}
======================================================================================================================================================
2019-09-12 15:50:18	service: /HosApp/alpha/?/requestPaymentNotification	data: {"invoice":{"citizenId":"2939900010238","hospitalNumber":"1991478","invoiceId":"00004","invoiceDateTime":"2019-09-0411:15:11","performDate":"2019-09-04","payable":1,"moreDetail":"รายละเอียดเพิ่มเติมในการแจ้งชำระเงิน","eligible":"สิทธิการรักษา","remark":"หมายเหตุเพิ่มเติมกรณีเก็บเงินไม่ได้","doctor":"ชื่อผู้สั่ง","clinic":"ชื่อคลินิกที่สั่ง","serviceDeliveryLocationCode":"รหัสหน่วยตรวจ","serviceDeliveryLocationName":"ชื่อหน่วยตรวจ"},"billList":[{"billName":"1991478","amountInRight":1500,"amountOverRight":2100,"roundOff":0,"performStatus":1}]}
======================================================================================================================================================
2019-09-12 15:50:50	service: /HosApp/alpha/?/requestPaymentNotification	data: {"invoice":{"hospitalNumber":"1991478","invoiceId":"0000004","performDate":"2019-09-15","invoiceDateTime":"2019-09-1511:38:00","moreDetail":"หนี้มาแล้วจ้าา!","payable":1,"station":"HosApp","remark":""},"billList":[{"billName":"ค่ายา","amountInRight":1000.00,"amountOverRight":0.00,"performStatus":1}]}
======================================================================================================================================================
2019-09-12 15:51:00	service: /HosApp/alpha/?/requestPaymentNotification	data: {"invoice":{"citizenId":"2939900010238","hospitalNumber":"1991478","invoiceId":"00004","invoiceDateTime":"2019-09-0411:15:11","performDate":"2019-09-04","payable":1,"moreDetail":"รายละเอียดเพิ่มเติมในการแจ้งชำระเงิน","eligible":"สิทธิการรักษา","remark":"หมายเหตุเพิ่มเติมกรณีเก็บเงินไม่ได้","doctor":"ชื่อผู้สั่ง","clinic":"ชื่อคลินิกที่สั่ง","serviceDeliveryLocationCode":"รหัสหน่วยตรวจ","serviceDeliveryLocationName":"ชื่อหน่วยตรวจ"},"billList":[{"billName":"1991478","amountInRight":1500,"amountOverRight":2100,"roundOff":0,"performStatus":1}]}
======================================================================================================================================================
2019-09-12 15:51:30	service: /HosApp/alpha/?/requestPaymentNotification	data: {"invoice":{"citizenId":"2939900010238","hospitalNumber":"1991478","invoiceId":"00004","invoiceDateTime":"2019-09-0411:15:11","performDate":"2019-09-04","payable":1,"moreDetail":"รายละเอียดเพิ่มเติมในการแจ้งชำระเงิน","eligible":"สิทธิการรักษา","remark":"หมายเหตุเพิ่มเติมกรณีเก็บเงินไม่ได้","doctor":"ชื่อผู้สั่ง","clinic":"ชื่อคลินิกที่สั่ง","serviceDeliveryLocationCode":"รหัสหน่วยตรวจ","serviceDeliveryLocationName":"ชื่อหน่วยตรวจ"},"billList":[{"billName":"1991478","amountInRight":1500,"amountOverRight":2100,"roundOff":0,"performStatus":1}]}
======================================================================================================================================================
2019-09-12 15:57:54	service: /HosApp/alpha/?/requestPaymentNotification	data: {"invoice":{"citizenId":"2939900010238","hospitalNumber":"1991478","invoiceId":"00004","invoiceDateTime":"2019-09-0411:15:11","performDate":"2019-09-04","payable":1,"moreDetail":"รายละเอียดเพิ่มเติมในการแจ้งชำระเงิน","eligible":"สิทธิการรักษา","remark":"หมายเหตุเพิ่มเติมกรณีเก็บเงินไม่ได้","doctor":"ชื่อผู้สั่ง","clinic":"ชื่อคลินิกที่สั่ง","serviceDeliveryLocationCode":"รหัสหน่วยตรวจ","serviceDeliveryLocationName":"ชื่อหน่วยตรวจ"},"billList":[{"billName":"1991478","amountInRight":1500,"amountOverRight":2100,"roundOff":0,"performStatus":1}]}
======================================================================================================================================================
2019-09-12 15:58:18	service: /HosApp/alpha/?/requestPaymentNotification	data: {"invoice":{"hospitalNumber":"1991478","invoiceId":"0000004","performDate":"2019-09-15","invoiceDateTime":"2019-09-1511:38:00","moreDetail":"หนี้มาแล้วจ้าา!","payable":1,"station":"HosApp","remark":""},"billList":[{"billName":"ค่ายา","amountInRight":1000.00,"amountOverRight":0.00,"performStatus":1}]}
======================================================================================================================================================
2019-09-12 15:59:42	service: /HosApp/alpha/?/requestPaymentNotification	data: {"invoice":{"citizenId":"2939900010238","hospitalNumber":"1991478","invoiceId":"00004","invoiceDateTime":"2019-09-0411:15:11","performDate":"2019-09-04","payable":1,"moreDetail":"รายละเอียดเพิ่มเติมในการแจ้งชำระเงิน","eligible":"สิทธิการรักษา","remark":"หมายเหตุเพิ่มเติมกรณีเก็บเงินไม่ได้","doctor":"ชื่อผู้สั่ง","clinic":"ชื่อคลินิกที่สั่ง","serviceDeliveryLocationCode":"รหัสหน่วยตรวจ","serviceDeliveryLocationName":"ชื่อหน่วยตรวจ"},"billList":[{"billName":"1991478","amountInRight":1500,"amountOverRight":2100,"roundOff":0,"performStatus":1}]}
======================================================================================================================================================
2019-09-12 15:59:54	service: /HosApp/alpha/?/requestPaymentNotification	data: {"invoice":{"hospitalNumber":"1991478","invoiceId":"0000004","performDate":"2019-09-15","invoiceDateTime":"2019-09-1511:38:00","moreDetail":"หนี้มาแล้วจ้าา!","payable":1,"station":"HosApp","remark":""},"billList":[{"billName":"ค่ายา","amountInRight":1000.00,"amountOverRight":0.00,"performStatus":1}]}
======================================================================================================================================================
2019-09-12 16:00:34	service: /HosApp/alpha/?/requestPaymentNotification	data: {"invoice":{"citizenId":"2939900010238","hospitalNumber":"1991478","invoiceId":"0000004","performDate":"2019-09-15","invoiceDateTime":"2019-09-1511:38:00","moreDetail":"หนี้มาแล้วจ้าา!","payable":1,"station":"HosApp","remark":""},"billList":[{"billName":"ค่ายา","amountInRight":1000.00,"amountOverRight":0.00,"performStatus":1}]}
======================================================================================================================================================
2019-09-12 16:00:47	service: /HosApp/alpha/?/requestPaymentNotification	data: {"invoice":{"citizenId":"2939900010238","hospitalNumber":"1991478","invoiceId":"0000004","performDate":"2019-09-15","invoiceDateTime":"2019-09-1511:38:00","moreDetail":"หนี้มาแล้วจ้าา!","payable":1,"station":"HosApp","remark":""},"billList":[{"billName":"ค่ายา","amountInRight":1000.00,"amountOverRight":0.00,"performStatus":1}]}
======================================================================================================================================================
2019-09-12 16:01:55	service: /HosApp/alpha/?/requestPaymentNotification	data: {"invoice":{"citizenId":"2939900010238","hospitalNumber":"1991478","invoiceId":"00004","invoiceDateTime":"2019-09-0411:15:11","performDate":"2019-09-04","payable":1,"moreDetail":"รายละเอียดเพิ่มเติมในการแจ้งชำระเงิน","eligible":"สิทธิการรักษา","remark":"หมายเหตุเพิ่มเติมกรณีเก็บเงินไม่ได้","doctor":"ชื่อผู้สั่ง","clinic":"ชื่อคลินิกที่สั่ง","serviceDeliveryLocationCode":"รหัสหน่วยตรวจ","serviceDeliveryLocationName":"ชื่อหน่วยตรวจ"},"billList":[{"billName":"1991478","amountInRight":1500,"amountOverRight":2100,"roundOff":0,"performStatus":1}]}
======================================================================================================================================================
2019-09-12 16:05:50	service: /HosApp/alpha/?/requestPaymentNotification	data: {"invoice":{"citizenId":"2939900010238","hospitalNumber":"1991478","invoiceId":"00004","invoiceDateTime":"2019-09-0411:15:11","performDate":"2019-09-04","payable":1,"moreDetail":"รายละเอียดเพิ่มเติมในการแจ้งชำระเงิน","eligible":"สิทธิการรักษา","remark":"หมายเหตุเพิ่มเติมกรณีเก็บเงินไม่ได้","doctor":"ชื่อผู้สั่ง","clinic":"ชื่อคลินิกที่สั่ง","serviceDeliveryLocationCode":"รหัสหน่วยตรวจ","serviceDeliveryLocationName":"ชื่อหน่วยตรวจ"},"billList":[{"billName":"1991478","amountInRight":1500,"amountOverRight":2100,"roundOff":0,"performStatus":1}]}
======================================================================================================================================================
2019-09-12 16:18:00	service: /HosApp/alpha/?/requestPaymentNotification	data: {"invoice":{"citizenId":"2939900010238","hospitalNumber":"1991478","invoiceId":"00004","invoiceDateTime":"2019-09-0411:15:11","performDate":"2019-09-04","payable":1,"moreDetail":"รายละเอียดเพิ่มเติมในการแจ้งชำระเงิน","eligible":"สิทธิการรักษา","remark":"หมายเหตุเพิ่มเติมกรณีเก็บเงินไม่ได้","doctor":"ชื่อผู้สั่ง","clinic":"ชื่อคลินิกที่สั่ง","serviceDeliveryLocationCode":"รหัสหน่วยตรวจ","serviceDeliveryLocationName":"ชื่อหน่วยตรวจ"},"billList":[{"billName":"1991478","amountInRight":1500,"amountOverRight":2100,"roundOff":0,"performStatus":1}]}
======================================================================================================================================================
2019-09-12 16:29:45	service: /HosApp/alpha/?/requestPaymentNotification	data: {"invoice":{"citizenId":"000-448741435","hospitalNumber":"1991478","invoiceId":"00004","invoiceDateTime":"2019-09-0411:15:11","performDate":"2019-09-04","payable":1,"moreDetail":"รายละเอียดเพิ่มเติมในการแจ้งชำระเงิน","eligible":"สิทธิการรักษา","remark":"หมายเหตุเพิ่มเติมกรณีเก็บเงินไม่ได้","doctor":"ชื่อผู้สั่ง","clinic":"ชื่อคลินิกที่สั่ง","serviceDeliveryLocationCode":"รหัสหน่วยตรวจ","serviceDeliveryLocationName":"ชื่อหน่วยตรวจ"},"billList":[{"billName":"1991478","amountInRight":1500,"amountOverRight":2100,"roundOff":0,"performStatus":1}]}
======================================================================================================================================================
2019-09-12 16:48:55	service: /HosApp/alpha/?/requestPaymentNotification	data: {"invoice":{"citizenId":"4823531017807","hospitalNumber":"5448765","invoiceId":"544876","invoiceDateTime":"0859-04-2200:00:00","performDate":"0859-04-22","payable":1,"moreDetail":"รายละเอียดเพิ่มเติมในการแจ้งชำระเงิน","eligible":"สิทธิการรักษา","remark":"หมายเหตุเพิ่มเติมกรณีเก็บเงินไม่ได้","doctor":"ชื่อผู้สั่ง","clinic":"ชื่อคลินิกที่สั่ง","serviceDeliveryLocationCode":"รหัสหน่วยตรวจ","serviceDeliveryLocationName":"ชื่อหน่วยตรวจ"},"billList":[{"billName":"ค่ายา","amountInRight":5448,"amountOverRight":5448,"roundOff":4,"performStatus":1}]}
======================================================================================================================================================
