2019-09-20 08:40:28	service: /HosApp/alpha/?/verifyPayment	data: {"hospitalNumber":"1991478","invoiceList":[{"invoiceId":"897097"}],"totalAmount":1519,"stationID":"001"}
======================================================================================================================================================
2019-09-20 08:41:16	service: /HosApp/alpha/?/verifyPayment	data: {"hospitalNumber":"1991478","invoiceList":[{"invoiceId":"897097"}],"totalAmount":1519,"stationID":"001"}
======================================================================================================================================================
2019-09-20 08:41:19	service: /HosApp/alpha/?/verifyPayment	data: {"hospitalNumber":"1991478","invoiceList":[{"invoiceId":"897097"}],"totalAmount":1519,"stationID":"001"}
======================================================================================================================================================
2019-09-20 08:41:59	service: /HosApp/alpha/?/verifyPayment	data: {"hospitalNumber":"1991478","invoiceList":[{"invoiceId":"897097"}],"totalAmount":1519,"stationID":"001"}
======================================================================================================================================================
2019-09-20 08:42:14	service: /HosApp/alpha/?/verifyPayment	data: {"hospitalNumber":"1991478","invoiceList":[{"invoiceId":"897097"}],"totalAmount":1519,"stationID":"001"}
======================================================================================================================================================
2019-09-20 08:44:25	service: /HosApp/alpha/?/verifyPayment	data: {"hospitalNumber":"1991478","invoiceList":[{"invoiceId":"897097"}],"totalAmount":1519,"stationID":"001"}
======================================================================================================================================================
2019-09-20 08:44:37	service: /HosApp/alpha/?/verifyPayment	data: {"hospitalNumber":"1991478","invoiceList":[{"invoiceId":"897097"}],"totalAmount":1519,"stationID":"001"}
======================================================================================================================================================
2019-09-20 08:44:42	service: /HosApp/alpha/?/verifyPayment	data: {"hospitalNumber":"1991478","invoiceList":[{"invoiceId":"897097"}],"totalAmount":1519,"stationID":"001"}
======================================================================================================================================================
2019-09-20 08:45:02	service: /HosApp/alpha/?/verifyPayment	data: {"hospitalNumber":"1991478","invoiceList":[{"invoiceId":"897097"}],"totalAmount":1519,"stationID":"001"}
======================================================================================================================================================
2019-09-20 08:45:06	service: /HosApp/alpha/?/verifyPayment	data: {"hospitalNumber":"1991478","invoiceList":[{"invoiceId":"897097"}],"totalAmount":1519,"stationID":"001"}
======================================================================================================================================================
2019-09-20 08:45:11	service: /HosApp/alpha/?/verifyPayment	data: {"hospitalNumber":"1991478","invoiceList":[{"invoiceId":"897097"}],"totalAmount":1519,"stationID":"001"}
======================================================================================================================================================
2019-09-20 08:47:08	service: /HosApp/alpha/?/verifyPayment	data: {"hospitalNumber":"1991478","invoiceList":[{"invoiceId":"897097"}],"totalAmount":1519,"stationID":"001"}
======================================================================================================================================================
2019-09-20 08:47:09	service: /HosApp/alpha/?/verifyPayment	data: {"hospitalNumber":"1991478","invoiceList":[{"invoiceId":"897097"}],"totalAmount":1519,"stationID":"001"}
======================================================================================================================================================
2019-09-20 08:47:21	service: /HosApp/alpha/?/verifyPayment	data: {"hospitalNumber":"1991478","invoiceList":[{"invoiceId":"897097"}],"totalAmount":1519,"stationID":"001"}
======================================================================================================================================================
2019-09-20 08:47:45	service: /HosApp/alpha/?/verifyPayment	data: {"hospitalNumber":"1991478","invoiceList":[{"invoiceId":"897097"}],"totalAmount":1519,"stationID":"001"}
======================================================================================================================================================
2019-09-20 08:47:46	service: /HosApp/alpha/?/verifyPayment	data: {"hospitalNumber":"1991478","invoiceList":[{"invoiceId":"897097"}],"totalAmount":1519,"stationID":"001"}
======================================================================================================================================================
2019-09-20 08:47:48	service: /HosApp/alpha/?/verifyPayment	data: {"hospitalNumber":"1991478","invoiceList":[{"invoiceId":"897097"}],"totalAmount":1519,"stationID":"001"}
======================================================================================================================================================
2019-09-20 08:47:51	service: /HosApp/alpha/?/verifyPayment	data: {"hospitalNumber":"1991478","invoiceList":[{"invoiceId":"897097"}],"totalAmount":1519,"stationID":"001"}
======================================================================================================================================================
2019-09-20 08:48:40	service: /HosApp/alpha/?/verifyPayment	data: {"hospitalNumber":"1991478","invoiceList":[{"invoiceId":"897097"}],"totalAmount":1519,"stationID":"001"}
======================================================================================================================================================
2019-09-20 08:48:45	service: /HosApp/alpha/?/requestPaymentNotification	data: {"invoice":{"citizenId":"3801200699308","hospitalNumber":"1273226","invoiceId":"1273226201909200847","invoiceDateTime":"2019-09-2008:47:07","performDate":"2019-09-20","payable":true,"moreDetail":"","eligible":"ประกันสังคมมอ.","remark":"","doctor":"","clinic":"","serviceDeliveryLocationCode":"","serviceDeliveryLocationName":""},"billList":[{"billName":"ค่าตรวจวินิจฉัยทางเทคนิคการแพทย์และพยาธิวิทยา","amountInRight":60.00,"amountOverRight":0,"roundOff":0,"performStatus":true},{"billName":"ค่าตรวจวินิจฉัยทางเทคนิคการแพทย์และพยาธิวิทยา","amountInRight":60.00,"amountOverRight":0,"roundOff":0,"performStatus":true},{"billName":"ค่าตรวจวินิจฉัยทางเทคนิคการแพทย์และพยาธิวิทยา","amountInRight":180.00,"amountOverRight":0,"roundOff":0,"performStatus":true},{"billName":"ค่าตรวจวินิจฉัยทางเทคนิคการแพทย์และพยาธิวิทยา","amountInRight":100.00,"amountOverRight":0,"roundOff":0,"performStatus":true},{"billName":"ค่าตรวจวินิจฉัยทางเทคนิคการแพทย์และพยาธิวิทยา","amountInRight":40.00,"amountOverRight":0,"roundOff":0,"performStatus":true},{"billName":"ค่าตรวจวินิจฉัยทางเทคนิคการแพทย์และพยาธิวิทยา","amountInRight":180.00,"amountOverRight":0,"roundOff":0,"performStatus":true}]}
======================================================================================================================================================
2019-09-20 08:48:46	service: /HosApp/alpha/?/verifyPayment	data: {"hospitalNumber":"1991478","invoiceList":[{"invoiceId":"897097"}],"totalAmount":1519,"stationID":"001"}
======================================================================================================================================================
2019-09-20 08:48:48	service: /HosApp/alpha/?/verifyPayment	data: {"hospitalNumber":"1991478","invoiceList":[{"invoiceId":"897097"}],"totalAmount":1519,"stationID":"001"}
======================================================================================================================================================
2019-09-20 08:49:11	service: /HosApp/alpha/?/verifyPayment	data: {"hospitalNumber":"1991478","invoiceList":[{"invoiceId":"897097"}],"totalAmount":1519,"stationID":"001"}
======================================================================================================================================================
2019-09-20 08:49:12	service: /HosApp/alpha/?/verifyPayment	data: {"hospitalNumber":"1991478","invoiceList":[{"invoiceId":"897097"}],"totalAmount":1519,"stationID":"001"}
======================================================================================================================================================
2019-09-20 08:49:37	service: /HosApp/alpha/?/verifyPayment	data: {"hospitalNumber":"1991478","invoiceList":[{"invoiceId":"897097"}],"totalAmount":1519,"stationID":"001"}
======================================================================================================================================================
2019-09-20 08:49:56	service: /HosApp/alpha/?/verifyPayment	data: {"hospitalNumber":"1991478","invoiceList":[{"invoiceId":"897097"}],"totalAmount":1519,"stationID":"001"}
======================================================================================================================================================
2019-09-20 08:50:00	service: /HosApp/alpha/?/verifyPayment	data: {"hospitalNumber":"1991478","invoiceList":[{"invoiceId":"897097"}],"totalAmount":1519,"stationID":"001"}
======================================================================================================================================================
2019-09-20 08:52:57	service: /HosApp/alpha/?/verifyPayment	data: {"hospitalNumber":"1991478","invoiceList":[{"invoiceId":"897097"}],"totalAmount":1519,"stationID":"001"}
======================================================================================================================================================
2019-09-20 08:53:15	service: /HosApp/alpha/?/verifyPayment	data: {"hospitalNumber":"1991478","invoiceList":[{"invoiceId":"897097"}],"totalAmount":1519,"stationID":"001"}
======================================================================================================================================================
2019-09-20 08:53:33	service: /HosApp/alpha/?/requestPaymentNotification	data: {"invoice":{"citizenId":"3909801145885","hospitalNumber":"0607277","invoiceId":"0607277201909200852","invoiceDateTime":"2019-09-2008:52:06","performDate":"2019-09-20","payable":true,"moreDetail":"","eligible":"ประกันสังคมมอ.","remark":"","doctor":"","clinic":"","serviceDeliveryLocationCode":"","serviceDeliveryLocationName":""},"billList":[{"billName":"ค่าตรวจวินิจฉัยทางเทคนิคการแพทย์และพยาธิวิทยา","amountInRight":420.00,"amountOverRight":0,"roundOff":0,"performStatus":true},{"billName":"ค่าตรวจวินิจฉัยทางเทคนิคการแพทย์และพยาธิวิทยา","amountInRight":325.00,"amountOverRight":0,"roundOff":0,"performStatus":true},{"billName":"ค่าตรวจวินิจฉัยโดยใช้วิธีพิเศษอื่นๆ","amountInRight":240.00,"amountOverRight":0,"roundOff":0,"performStatus":true},{"billName":"ค่าตรวจวินิจฉัยและรักษาทางรังสีวิทยา","amountInRight":8000.00,"amountOverRight":0,"roundOff":0,"performStatus":true},{"billName":"ค่าตรวจวินิจฉัยและรักษาทางรังสีวิทยา","amountInRight":8000.00,"amountOverRight":0,"roundOff":0,"performStatus":true},{"billName":"ค่าตรวจวินิจฉัยและรักษาทางรังสีวิทยา","amountInRight":2500.00,"amountOverRight":0,"roundOff":0,"performStatus":true}]}
======================================================================================================================================================
2019-09-20 08:53:43	service: /HosApp/alpha/?/requestPaymentNotification	data: {"invoice":{"citizenId":"3909801145885","hospitalNumber":"0607277","invoiceId":"0607277920201985316","invoiceDateTime":"2019-09-2008:52:16","performDate":"2019-09-20","payable":true,"moreDetail":"","eligible":"ประกันสังคมมอ.","remark":"","doctor":"","clinic":"","serviceDeliveryLocationCode":"","serviceDeliveryLocationName":""},"billList":[{"billName":"ค่าตรวจวินิจฉัยทางเทคนิคการแพทย์และพยาธิวิทยา","amountInRight":420.00,"amountOverRight":0,"roundOff":0,"performStatus":true},{"billName":"ค่าตรวจวินิจฉัยทางเทคนิคการแพทย์และพยาธิวิทยา","amountInRight":325.00,"amountOverRight":0,"roundOff":0,"performStatus":true},{"billName":"ค่าตรวจวินิจฉัยโดยใช้วิธีพิเศษอื่นๆ","amountInRight":240.00,"amountOverRight":0,"roundOff":0,"performStatus":true},{"billName":"ค่าตรวจวินิจฉัยและรักษาทางรังสีวิทยา","amountInRight":8000.00,"amountOverRight":0,"roundOff":0,"performStatus":true},{"billName":"ค่าตรวจวินิจฉัยและรักษาทางรังสีวิทยา","amountInRight":8000.00,"amountOverRight":0,"roundOff":0,"performStatus":true},{"billName":"ค่าตรวจวินิจฉัยและรักษาทางรังสีวิทยา","amountInRight":2500.00,"amountOverRight":0,"roundOff":0,"performStatus":true}]}
======================================================================================================================================================
2019-09-20 08:54:26	service: /HosApp/alpha/?/verifyPayment	data: {"hospitalNumber":"1991478","invoiceList":[{"invoiceId":"897097"}],"totalAmount":1519,"stationID":"001"}
======================================================================================================================================================
2019-09-20 08:54:29	service: /HosApp/alpha/?/unlockPayment	data: {"hospitalNumber":"1991478","station":"001","verifyRefID":"19914780190920085257","citizenId":"2939900010238"}
======================================================================================================================================================
2019-09-20 08:55:42	service: /HosApp/alpha/?/verifyPayment	data: {"hospitalNumber":"1991478","invoiceList":[{"invoiceId":"897097"}],"totalAmount":1519,"stationID":"001"}
======================================================================================================================================================
2019-09-20 08:55:45	service: /HosApp/alpha/?/unlockPayment	data: {"hospitalNumber":"1991478","station":"001","verifyRefID":"19914780190920085257","citizenId":"2939900010238"}
======================================================================================================================================================
2019-09-20 08:55:48	service: /HosApp/alpha/?/verifyPayment	data: {"hospitalNumber":"1991478","invoiceList":[{"invoiceId":"897097"}],"totalAmount":1519,"stationID":"001"}
======================================================================================================================================================
2019-09-20 08:55:50	service: /HosApp/alpha/?/verifyPayment	data: {"hospitalNumber":"1991478","invoiceList":[{"invoiceId":"897097"}],"totalAmount":1519,"stationID":"001"}
======================================================================================================================================================
2019-09-20 08:55:52	service: /HosApp/alpha/?/unlockPayment	data: {"hospitalNumber":"1991478","station":"001","verifyRefID":"19914780190920085257","citizenId":"2939900010238"}
======================================================================================================================================================
2019-09-20 08:56:52	service: /HosApp/alpha/?/unlockPayment	data: {"hospitalNumber":"1991478","station":"001","verifyRefID":"19914780190920085257","citizenId":"2939900010238"}
======================================================================================================================================================
2019-09-20 08:56:56	service: /HosApp/alpha/?/verifyPayment	data: {"hospitalNumber":"1991478","invoiceList":[{"invoiceId":"897097"}],"totalAmount":1519,"stationID":"001"}
======================================================================================================================================================
2019-09-20 08:56:59	service: /HosApp/alpha/?/unlockPayment	data: {"hospitalNumber":"1991478","station":"001","verifyRefID":"19914780190920085257","citizenId":"2939900010238"}
======================================================================================================================================================
2019-09-20 08:57:21	service: /HosApp/alpha/?/verifyPayment	data: {"hospitalNumber":"1991478","invoiceList":[{"invoiceId":"897097"}],"totalAmount":1519,"stationID":"001"}
======================================================================================================================================================
2019-09-20 08:57:30	service: /HosApp/alpha/?/unlockPayment	data: {"hospitalNumber":"1991478","station":"001","verifyRefID":"19914780190920085656","citizenId":"2939900010238"}
======================================================================================================================================================
2019-09-20 09:04:27	service: /HosApp/alpha/?/requestPaymentNotification	data: {"invoice":{"citizenId":"3909800274363","hospitalNumber":"0601262","invoiceId":"0601262201909200903","invoiceDateTime":"2019-09-2009:03:01","performDate":"2019-09-20","payable":true,"moreDetail":"","eligible":"ข้าราชการเบิกจ่ายตรง","remark":"","doctor":"","clinic":"","serviceDeliveryLocationCode":"","serviceDeliveryLocationName":""},"billList":[{"billName":"ค่ายาและสารอาหารทางเส้นเลือดที่ใช้ในรพ.","amountInRight":20.00,"amountOverRight":0,"roundOff":0,"performStatus":true}]}
======================================================================================================================================================
2019-09-20 12:57:45	service: /HosApp/alpha/?/requestPaymentNotification	data: {"invoice":{"citizenId":"3801600610762","hospitalNumber":"0927950","invoiceId":"838829","invoiceDateTime":"2019-09-1904:47:21","performDate":"2019-09-19","payable":true,"moreDetail":"รายละเอียดเพิ่มเติมในการแจ้งชำระเงิน","eligible":"เครดิตหน่วยกิจการนักศึกษา","remark":"กรณีเก็บเงินไม่ได้กรุณาติดต่อการเงิน","doctor":"DoctorB","clinic":"ClinicB","serviceDeliveryLocationCode":"04","serviceDeliveryLocationName":"ServiceD"},"billList":[{"billName":"ค่าบริการทางแพทย์","amountInRight":4574,"amountOverRight":7944,"roundOff":0,"performStatus":true}]}
======================================================================================================================================================
2019-09-20 12:57:51	service: /HosApp/alpha/?/requestPaymentNotification	data: {"invoice":{"citizenId":"3810200192431","hospitalNumber":"0941085","invoiceId":"224906","invoiceDateTime":"2019-09-1909:30:20","performDate":"2019-09-19","payable":true,"moreDetail":"รายละเอียดเพิ่มเติมในการแจ้งชำระเงิน","eligible":"พนักงานธนาคารไทยพาณิชย์","remark":"กรณีเก็บเงินไม่ได้กรุณาติดต่อการเงิน","doctor":"DoctorB","clinic":"ClinicA","serviceDeliveryLocationCode":"05","serviceDeliveryLocationName":"ServiceE"},"billList":[{"billName":"ค่าบริการทางแพทย์","amountInRight":2412,"amountOverRight":6324,"roundOff":0,"performStatus":true}]}
======================================================================================================================================================
2019-09-20 12:57:56	service: /HosApp/alpha/?/requestPaymentNotification	data: {"invoice":{"citizenId":"1909900027493","hospitalNumber":"1249657","invoiceId":"781041","invoiceDateTime":"2019-09-1914:04:39","performDate":"2019-09-19","payable":true,"moreDetail":"รายละเอียดเพิ่มเติมในการแจ้งชำระเงิน","eligible":"เครดิตหน่วยกิจการนักศึกษา","remark":"กรณีเก็บเงินไม่ได้กรุณาติดต่อการเงิน","doctor":"DoctorC","clinic":"ClinicB","serviceDeliveryLocationCode":"05","serviceDeliveryLocationName":"ServiceE"},"billList":[{"billName":"ค่าบริการทางแพทย์","amountInRight":3062,"amountOverRight":9888,"roundOff":0,"performStatus":true}]}
======================================================================================================================================================
2019-09-20 12:58:01	service: /HosApp/alpha/?/requestPaymentNotification	data: {"invoice":{"citizenId":"2939900010238","hospitalNumber":"1991478","invoiceId":"299045","invoiceDateTime":"2019-09-1902:06:38","performDate":"2019-09-19","payable":true,"moreDetail":"รายละเอียดเพิ่มเติมในการแจ้งชำระเงิน","eligible":"ตรวจสุขภาพนักศึกษา","remark":"กรณีเก็บเงินไม่ได้กรุณาติดต่อการเงิน","doctor":"DoctorB","clinic":"ClinicB","serviceDeliveryLocationCode":"04","serviceDeliveryLocationName":"ServiceD"},"billList":[{"billName":"ค่าบริการทางแพทย์","amountInRight":6228,"amountOverRight":6539,"roundOff":0,"performStatus":true}]}
======================================================================================================================================================
2019-09-20 12:58:06	service: /HosApp/alpha/?/requestPaymentNotification	data: {"invoice":{"citizenId":"3810200192431","hospitalNumber":"0941085","invoiceId":"961561","invoiceDateTime":"2019-09-1912:03:48","performDate":"2019-09-19","payable":true,"moreDetail":"รายละเอียดเพิ่มเติมในการแจ้งชำระเงิน","eligible":"ตรวจสุขภาพนักศึกษา","remark":"กรณีเก็บเงินไม่ได้กรุณาติดต่อการเงิน","doctor":"DoctorE","clinic":"ClinicD","serviceDeliveryLocationCode":"05","serviceDeliveryLocationName":"ServiceE"},"billList":[{"billName":"ค่าบริการทางแพทย์","amountInRight":9056,"amountOverRight":2280,"roundOff":0,"performStatus":true}]}
======================================================================================================================================================
2019-09-20 12:58:11	service: /HosApp/alpha/?/requestPaymentNotification	data: {"invoice":{"citizenId":"1909800459979","hospitalNumber":"0398988","invoiceId":"611577","invoiceDateTime":"2019-09-1906:13:23","performDate":"2019-09-19","payable":true,"moreDetail":"รายละเอียดเพิ่มเติมในการแจ้งชำระเงิน","eligible":"ตรวจสุขภาพนักศึกษา","remark":"กรณีเก็บเงินไม่ได้กรุณาติดต่อการเงิน","doctor":"DoctorA","clinic":"ClinicB","serviceDeliveryLocationCode":"05","serviceDeliveryLocationName":"ServiceE"},"billList":[{"billName":"ค่าบริการทางแพทย์","amountInRight":6619,"amountOverRight":6473,"roundOff":0,"performStatus":true}]}
======================================================================================================================================================
2019-09-20 12:58:16	service: /HosApp/alpha/?/requestPaymentNotification	data: {"invoice":{"citizenId":"3909900013359","hospitalNumber":"0053027","invoiceId":"114517","invoiceDateTime":"2019-09-1909:31:26","performDate":"2019-09-19","payable":true,"moreDetail":"รายละเอียดเพิ่มเติมในการแจ้งชำระเงิน","eligible":"โครงการฟันเทียมพระราชทาน","remark":"กรณีเก็บเงินไม่ได้กรุณาติดต่อการเงิน","doctor":"DoctorC","clinic":"ClinicB","serviceDeliveryLocationCode":"01","serviceDeliveryLocationName":"ServiceA"},"billList":[{"billName":"ค่าบริการทางแพทย์","amountInRight":7733,"amountOverRight":2388,"roundOff":0,"performStatus":true}]}
======================================================================================================================================================
2019-09-20 12:58:21	service: /HosApp/alpha/?/requestPaymentNotification	data: {"invoice":{"citizenId":"1909900027493","hospitalNumber":"1249657","invoiceId":"237977","invoiceDateTime":"2019-09-1909:34:59","performDate":"2019-09-19","payable":true,"moreDetail":"รายละเอียดเพิ่มเติมในการแจ้งชำระเงิน","eligible":"โครงการฟันเทียมพระราชทาน","remark":"กรณีเก็บเงินไม่ได้กรุณาติดต่อการเงิน","doctor":"DoctorB","clinic":"ClinicE","serviceDeliveryLocationCode":"04","serviceDeliveryLocationName":"ServiceD"},"billList":[{"billName":"ค่ายา","amountInRight":5851,"amountOverRight":1410,"roundOff":0,"performStatus":true}]}
======================================================================================================================================================
2019-09-20 12:58:27	service: /HosApp/alpha/?/requestPaymentNotification	data: {"invoice":{"citizenId":"3801200699308","hospitalNumber":"1273226","invoiceId":"838135","invoiceDateTime":"2019-09-1909:25:56","performDate":"2019-09-19","payable":true,"moreDetail":"รายละเอียดเพิ่มเติมในการแจ้งชำระเงิน","eligible":"ตรวจสุขภาพนักศึกษา","remark":"กรณีเก็บเงินไม่ได้กรุณาติดต่อการเงิน","doctor":"DoctorC","clinic":"ClinicD","serviceDeliveryLocationCode":"01","serviceDeliveryLocationName":"ServiceA"},"billList":[{"billName":"ค่ายา","amountInRight":8307,"amountOverRight":1755,"roundOff":0,"performStatus":true}]}
======================================================================================================================================================
2019-09-20 12:58:32	service: /HosApp/alpha/?/requestPaymentNotification	data: {"invoice":{"citizenId":"5900199011764","hospitalNumber":"1168047","invoiceId":"888177","invoiceDateTime":"2019-09-1907:02:28","performDate":"2019-09-19","payable":true,"moreDetail":"รายละเอียดเพิ่มเติมในการแจ้งชำระเงิน","eligible":"พนักงานธนาคารไทยพาณิชย์","remark":"กรณีเก็บเงินไม่ได้กรุณาติดต่อการเงิน","doctor":"DoctorE","clinic":"ClinicC","serviceDeliveryLocationCode":"05","serviceDeliveryLocationName":"ServiceE"},"billList":[{"billName":"ค่ายา","amountInRight":6010,"amountOverRight":4117,"roundOff":0,"performStatus":true}]}
======================================================================================================================================================
2019-09-20 12:58:37	service: /HosApp/alpha/?/requestPaymentNotification	data: {"invoice":{"citizenId":"3909900013359","hospitalNumber":"0053027","invoiceId":"939530","invoiceDateTime":"2019-09-1917:34:09","performDate":"2019-09-19","payable":true,"moreDetail":"รายละเอียดเพิ่มเติมในการแจ้งชำระเงิน","eligible":"เครดิตหน่วยกิจการนักศึกษา","remark":"กรณีเก็บเงินไม่ได้กรุณาติดต่อการเงิน","doctor":"DoctorD","clinic":"ClinicC","serviceDeliveryLocationCode":"01","serviceDeliveryLocationName":"ServiceA"},"billList":[{"billName":"ค่าบริการทางแพทย์","amountInRight":3044,"amountOverRight":7701,"roundOff":0,"performStatus":true}]}
======================================================================================================================================================
2019-09-20 12:58:42	service: /HosApp/alpha/?/requestPaymentNotification	data: {"invoice":{"citizenId":"3909900013359","hospitalNumber":"0053027","invoiceId":"768972","invoiceDateTime":"2019-09-1905:27:05","performDate":"2019-09-19","payable":true,"moreDetail":"รายละเอียดเพิ่มเติมในการแจ้งชำระเงิน","eligible":"โครงการฟันเทียมพระราชทาน","remark":"กรณีเก็บเงินไม่ได้กรุณาติดต่อการเงิน","doctor":"DoctorD","clinic":"ClinicD","serviceDeliveryLocationCode":"01","serviceDeliveryLocationName":"ServiceA"},"billList":[{"billName":"ค่ายา","amountInRight":1117,"amountOverRight":5045,"roundOff":0,"performStatus":true}]}
======================================================================================================================================================
2019-09-20 12:58:47	service: /HosApp/alpha/?/requestPaymentNotification	data: {"invoice":{"citizenId":"3801600610762","hospitalNumber":"0927950","invoiceId":"225585","invoiceDateTime":"2019-09-1905:30:25","performDate":"2019-09-19","payable":true,"moreDetail":"รายละเอียดเพิ่มเติมในการแจ้งชำระเงิน","eligible":"สุขภาพถ้วนหน้ามะเร็งสปสช.","remark":"กรณีเก็บเงินไม่ได้กรุณาติดต่อการเงิน","doctor":"DoctorB","clinic":"ClinicB","serviceDeliveryLocationCode":"05","serviceDeliveryLocationName":"ServiceE"},"billList":[{"billName":"ค่ายา","amountInRight":7789,"amountOverRight":7542,"roundOff":0,"performStatus":true}]}
======================================================================================================================================================
2019-09-20 13:02:41	service: /HosApp/alpha/?/requestPaymentNotification	data: {"invoice":{"citizenId":"1820500124478","hospitalNumber":"1892219","invoiceId":"1026157171","invoiceDateTime":"2019-09-1901:40:09","performDate":"2019-09-19","payable":true,"moreDetail":"รายละเอียดเพิ่มเติมในการแจ้งชำระเงิน","eligible":"เครดิตหน่วยกิจการนักศึกษา","remark":"กรณีเก็บเงินไม่ได้กรุณาติดต่อการเงิน","doctor":"DoctorA","clinic":"ClinicC","serviceDeliveryLocationCode":"04","serviceDeliveryLocationName":"ServiceD"},"billList":[{"billName":"ค่าบริการทางแพทย์","amountInRight":7483,"amountOverRight":4783,"roundOff":0,"performStatus":true}]}
======================================================================================================================================================
2019-09-20 13:02:46	service: /HosApp/alpha/?/requestPaymentNotification	data: {"invoice":{"citizenId":"1910600003663","hospitalNumber":"1582006","invoiceId":"5364277620","invoiceDateTime":"2019-09-1923:05:26","performDate":"2019-09-19","payable":true,"moreDetail":"รายละเอียดเพิ่มเติมในการแจ้งชำระเงิน","eligible":"เครดิตหน่วยกิจการนักศึกษา","remark":"กรณีเก็บเงินไม่ได้กรุณาติดต่อการเงิน","doctor":"DoctorB","clinic":"ClinicA","serviceDeliveryLocationCode":"03","serviceDeliveryLocationName":"ServiceC"},"billList":[{"billName":"ค่าบริการทางแพทย์","amountInRight":9531,"amountOverRight":4264,"roundOff":0,"performStatus":true}]}
======================================================================================================================================================
2019-09-20 13:02:52	service: /HosApp/alpha/?/requestPaymentNotification	data: {"invoice":{"citizenId":"2939900010238","hospitalNumber":"1991478","invoiceId":"5431887381","invoiceDateTime":"2019-09-1917:10:15","performDate":"2019-09-19","payable":true,"moreDetail":"รายละเอียดเพิ่มเติมในการแจ้งชำระเงิน","eligible":"พนักงานธนาคารไทยพาณิชย์","remark":"กรณีเก็บเงินไม่ได้กรุณาติดต่อการเงิน","doctor":"DoctorD","clinic":"ClinicB","serviceDeliveryLocationCode":"01","serviceDeliveryLocationName":"ServiceA"},"billList":[{"billName":"ค่าบริการทางแพทย์","amountInRight":3615,"amountOverRight":3395,"roundOff":0,"performStatus":true}]}
======================================================================================================================================================
2019-09-20 13:02:57	service: /HosApp/alpha/?/requestPaymentNotification	data: {"invoice":{"citizenId":"3909801145885","hospitalNumber":"0607277","invoiceId":"1312341533","invoiceDateTime":"2019-09-1911:11:40","performDate":"2019-09-19","payable":true,"moreDetail":"รายละเอียดเพิ่มเติมในการแจ้งชำระเงิน","eligible":"สุขภาพถ้วนหน้ามะเร็งสปสช.","remark":"กรณีเก็บเงินไม่ได้กรุณาติดต่อการเงิน","doctor":"DoctorE","clinic":"ClinicC","serviceDeliveryLocationCode":"03","serviceDeliveryLocationName":"ServiceC"},"billList":[{"billName":"ค่ายา","amountInRight":9575,"amountOverRight":2992,"roundOff":0,"performStatus":true}]}
======================================================================================================================================================
2019-09-20 13:03:02	service: /HosApp/alpha/?/requestPaymentNotification	data: {"invoice":{"citizenId":"2939900010238","hospitalNumber":"1991478","invoiceId":"5520067192","invoiceDateTime":"2019-09-1917:02:14","performDate":"2019-09-19","payable":true,"moreDetail":"รายละเอียดเพิ่มเติมในการแจ้งชำระเงิน","eligible":"พนักงานธนาคารไทยพาณิชย์","remark":"กรณีเก็บเงินไม่ได้กรุณาติดต่อการเงิน","doctor":"DoctorE","clinic":"ClinicB","serviceDeliveryLocationCode":"02","serviceDeliveryLocationName":"ServiceB"},"billList":[{"billName":"ค่ายา","amountInRight":5629,"amountOverRight":7810,"roundOff":0,"performStatus":true}]}
======================================================================================================================================================
2019-09-20 13:03:07	service: /HosApp/alpha/?/requestPaymentNotification	data: {"invoice":{"citizenId":"3101201299920","hospitalNumber":"1004927","invoiceId":"5385965663","invoiceDateTime":"2019-09-1912:40:31","performDate":"2019-09-19","payable":true,"moreDetail":"รายละเอียดเพิ่มเติมในการแจ้งชำระเงิน","eligible":"ตรวจสุขภาพนักศึกษา","remark":"กรณีเก็บเงินไม่ได้กรุณาติดต่อการเงิน","doctor":"DoctorE","clinic":"ClinicB","serviceDeliveryLocationCode":"05","serviceDeliveryLocationName":"ServiceE"},"billList":[{"billName":"ค่ายา","amountInRight":7690,"amountOverRight":2161,"roundOff":0,"performStatus":true}]}
======================================================================================================================================================
2019-09-20 13:03:12	service: /HosApp/alpha/?/requestPaymentNotification	data: {"invoice":{"citizenId":"1909800307176","hospitalNumber":"1968556","invoiceId":"5587841211","invoiceDateTime":"2019-09-1907:12:21","performDate":"2019-09-19","payable":true,"moreDetail":"รายละเอียดเพิ่มเติมในการแจ้งชำระเงิน","eligible":"สุขภาพถ้วนหน้ามะเร็งสปสช.","remark":"กรณีเก็บเงินไม่ได้กรุณาติดต่อการเงิน","doctor":"DoctorC","clinic":"ClinicC","serviceDeliveryLocationCode":"05","serviceDeliveryLocationName":"ServiceE"},"billList":[{"billName":"ค่าบริการทางแพทย์","amountInRight":4831,"amountOverRight":7657,"roundOff":0,"performStatus":true}]}
======================================================================================================================================================
2019-09-20 13:03:17	service: /HosApp/alpha/?/requestPaymentNotification	data: {"invoice":{"citizenId":"3800400011791","hospitalNumber":"0986870","invoiceId":"5611320297","invoiceDateTime":"2019-09-1912:25:38","performDate":"2019-09-19","payable":true,"moreDetail":"รายละเอียดเพิ่มเติมในการแจ้งชำระเงิน","eligible":"สุขภาพถ้วนหน้ามะเร็งสปสช.","remark":"กรณีเก็บเงินไม่ได้กรุณาติดต่อการเงิน","doctor":"DoctorE","clinic":"ClinicC","serviceDeliveryLocationCode":"02","serviceDeliveryLocationName":"ServiceB"},"billList":[{"billName":"ค่ายา","amountInRight":5983,"amountOverRight":1664,"roundOff":0,"performStatus":true}]}
======================================================================================================================================================
2019-09-20 13:03:22	service: /HosApp/alpha/?/requestPaymentNotification	data: {"invoice":{"citizenId":"3810100710945","hospitalNumber":"0711336","invoiceId":"5659468010","invoiceDateTime":"2019-09-1915:16:45","performDate":"2019-09-19","payable":true,"moreDetail":"รายละเอียดเพิ่มเติมในการแจ้งชำระเงิน","eligible":"โครงการฟันเทียมพระราชทาน","remark":"กรณีเก็บเงินไม่ได้กรุณาติดต่อการเงิน","doctor":"DoctorE","clinic":"ClinicC","serviceDeliveryLocationCode":"05","serviceDeliveryLocationName":"ServiceE"},"billList":[{"billName":"ค่ายา","amountInRight":7340,"amountOverRight":6430,"roundOff":0,"performStatus":true}]}
======================================================================================================================================================
2019-09-20 13:03:28	service: /HosApp/alpha/?/requestPaymentNotification	data: {"invoice":{"citizenId":"1820500124478","hospitalNumber":"1892219","invoiceId":"1075534521","invoiceDateTime":"2019-09-1908:26:09","performDate":"2019-09-19","payable":true,"moreDetail":"รายละเอียดเพิ่มเติมในการแจ้งชำระเงิน","eligible":"ตรวจสุขภาพนักศึกษา","remark":"กรณีเก็บเงินไม่ได้กรุณาติดต่อการเงิน","doctor":"DoctorC","clinic":"ClinicA","serviceDeliveryLocationCode":"05","serviceDeliveryLocationName":"ServiceE"},"billList":[{"billName":"ค่ายา","amountInRight":8533,"amountOverRight":5676,"roundOff":0,"performStatus":true}]}
======================================================================================================================================================
2019-09-20 13:03:33	service: /HosApp/alpha/?/requestPaymentNotification	data: {"invoice":{"citizenId":"1909800565299","hospitalNumber":"0454728","invoiceId":"1275537840","invoiceDateTime":"2019-09-1914:32:16","performDate":"2019-09-19","payable":true,"moreDetail":"รายละเอียดเพิ่มเติมในการแจ้งชำระเงิน","eligible":"เครดิตหน่วยกิจการนักศึกษา","remark":"กรณีเก็บเงินไม่ได้กรุณาติดต่อการเงิน","doctor":"DoctorA","clinic":"ClinicA","serviceDeliveryLocationCode":"05","serviceDeliveryLocationName":"ServiceE"},"billList":[{"billName":"ค่าบริการทางแพทย์","amountInRight":7021,"amountOverRight":8974,"roundOff":0,"performStatus":true}]}
======================================================================================================================================================
2019-09-20 13:03:38	service: /HosApp/alpha/?/requestPaymentNotification	data: {"invoice":{"citizenId":"3810100710945","hospitalNumber":"0711336","invoiceId":"1104287000","invoiceDateTime":"2019-09-1923:43:31","performDate":"2019-09-19","payable":true,"moreDetail":"รายละเอียดเพิ่มเติมในการแจ้งชำระเงิน","eligible":"สุขภาพถ้วนหน้ามะเร็งสปสช.","remark":"กรณีเก็บเงินไม่ได้กรุณาติดต่อการเงิน","doctor":"DoctorE","clinic":"ClinicB","serviceDeliveryLocationCode":"02","serviceDeliveryLocationName":"ServiceB"},"billList":[{"billName":"ค่าบริการทางแพทย์","amountInRight":2170,"amountOverRight":9656,"roundOff":0,"performStatus":true}]}
======================================================================================================================================================
2019-09-20 13:03:43	service: /HosApp/alpha/?/requestPaymentNotification	data: {"invoice":{"citizenId":"3909800274363","hospitalNumber":"0601262","invoiceId":"5393578099","invoiceDateTime":"2019-09-1919:18:12","performDate":"2019-09-19","payable":true,"moreDetail":"รายละเอียดเพิ่มเติมในการแจ้งชำระเงิน","eligible":"เครดิตหน่วยกิจการนักศึกษา","remark":"กรณีเก็บเงินไม่ได้กรุณาติดต่อการเงิน","doctor":"DoctorA","clinic":"ClinicE","serviceDeliveryLocationCode":"04","serviceDeliveryLocationName":"ServiceD"},"billList":[{"billName":"ค่าบริการทางแพทย์","amountInRight":9170,"amountOverRight":3047,"roundOff":0,"performStatus":true}]}
======================================================================================================================================================
2019-09-20 13:03:48	service: /HosApp/alpha/?/requestPaymentNotification	data: {"invoice":{"citizenId":"3901000217627","hospitalNumber":"1116436","invoiceId":"5662208647","invoiceDateTime":"2019-09-1906:25:10","performDate":"2019-09-19","payable":true,"moreDetail":"รายละเอียดเพิ่มเติมในการแจ้งชำระเงิน","eligible":"สุขภาพถ้วนหน้ามะเร็งสปสช.","remark":"กรณีเก็บเงินไม่ได้กรุณาติดต่อการเงิน","doctor":"DoctorA","clinic":"ClinicB","serviceDeliveryLocationCode":"02","serviceDeliveryLocationName":"ServiceB"},"billList":[{"billName":"ค่ายา","amountInRight":9269,"amountOverRight":2653,"roundOff":0,"performStatus":true}]}
======================================================================================================================================================
2019-09-20 13:03:53	service: /HosApp/alpha/?/requestPaymentNotification	data: {"invoice":{"citizenId":"3901100693846","hospitalNumber":"0660365","invoiceId":"5372423526","invoiceDateTime":"2019-09-1916:07:43","performDate":"2019-09-19","payable":true,"moreDetail":"รายละเอียดเพิ่มเติมในการแจ้งชำระเงิน","eligible":"พนักงานธนาคารไทยพาณิชย์","remark":"กรณีเก็บเงินไม่ได้กรุณาติดต่อการเงิน","doctor":"DoctorB","clinic":"ClinicE","serviceDeliveryLocationCode":"01","serviceDeliveryLocationName":"ServiceA"},"billList":[{"billName":"ค่าบริการทางแพทย์","amountInRight":5251,"amountOverRight":1228,"roundOff":0,"performStatus":true}]}
======================================================================================================================================================
2019-09-20 13:03:58	service: /HosApp/alpha/?/requestPaymentNotification	data: {"invoice":{"citizenId":"3919900030598","hospitalNumber":"0486591","invoiceId":"5428973516","invoiceDateTime":"2019-09-1907:43:18","performDate":"2019-09-19","payable":true,"moreDetail":"รายละเอียดเพิ่มเติมในการแจ้งชำระเงิน","eligible":"ตรวจสุขภาพนักศึกษา","remark":"กรณีเก็บเงินไม่ได้กรุณาติดต่อการเงิน","doctor":"DoctorC","clinic":"ClinicB","serviceDeliveryLocationCode":"04","serviceDeliveryLocationName":"ServiceD"},"billList":[{"billName":"ค่าบริการทางแพทย์","amountInRight":9166,"amountOverRight":7326,"roundOff":0,"performStatus":true}]}
======================================================================================================================================================
2019-09-20 13:04:03	service: /HosApp/alpha/?/requestPaymentNotification	data: {"invoice":{"citizenId":"3901000217627","hospitalNumber":"1116436","invoiceId":"5479941635","invoiceDateTime":"2019-09-1907:21:27","performDate":"2019-09-19","payable":true,"moreDetail":"รายละเอียดเพิ่มเติมในการแจ้งชำระเงิน","eligible":"สุขภาพถ้วนหน้ามะเร็งสปสช.","remark":"กรณีเก็บเงินไม่ได้กรุณาติดต่อการเงิน","doctor":"DoctorC","clinic":"ClinicE","serviceDeliveryLocationCode":"01","serviceDeliveryLocationName":"ServiceA"},"billList":[{"billName":"ค่ายา","amountInRight":5524,"amountOverRight":3854,"roundOff":0,"performStatus":true}]}
======================================================================================================================================================
2019-09-20 13:05:01	service: /HosApp/alpha/?/requestPaymentNotification	data: {"invoice":{"citizenId":"3800400011791","hospitalNumber":"0986870","invoiceId":"5487042289","invoiceDateTime":"2019-09-1901:29:42","performDate":"2019-09-19","payable":true,"moreDetail":"รายละเอียดเพิ่มเติมในการแจ้งชำระเงิน","eligible":"โครงการฟันเทียมพระราชทาน","remark":"กรณีเก็บเงินไม่ได้กรุณาติดต่อการเงิน","doctor":"DoctorC","clinic":"ClinicC","serviceDeliveryLocationCode":"04","serviceDeliveryLocationName":"ServiceD"},"billList":[{"billName":"ค่าบริการทางแพทย์","amountInRight":8570,"amountOverRight":3924,"roundOff":0,"performStatus":true}]}
======================================================================================================================================================
2019-09-20 13:08:31	service: /HosApp/alpha/?/requestPaymentNotification	data: {"invoice":{"citizenId":"5900199011764","hospitalNumber":"1168047","invoiceId":"1383250121","invoiceDateTime":"2019-09-1914:30:54","performDate":"2019-09-19","payable":true,"moreDetail":"รายละเอียดเพิ่มเติมในการแจ้งชำระเงิน","eligible":"พนักงานธนาคารไทยพาณิชย์","remark":"กรณีเก็บเงินไม่ได้กรุณาติดต่อการเงิน","doctor":"DoctorB","clinic":"ClinicE","serviceDeliveryLocationCode":"04","serviceDeliveryLocationName":"ServiceD"},"billList":[{"billName":"ค่าบริการทางแพทย์","amountInRight":8892,"amountOverRight":9754,"roundOff":0,"performStatus":true}]}
======================================================================================================================================================
2019-09-20 13:24:33	service: /HosApp/alpha/?/paymentList	data: {"hospitalNumber":"0607277","language":"TH","citizenId":"1234567890123"}
======================================================================================================================================================
2019-09-20 13:25:07	service: /HosApp/alpha/?/token	data: {"grantType":"client_credentials","clientId":"1241829b399566934630c59775fba554","hospitalNumber":"0607277"}
======================================================================================================================================================
