2019-09-19 08:29:06	service: /HosApp/alpha/?/verifyPayment	data: {"hospitalNumber":"1991478","invoiceList":[{"invoiceId":"897097"}],"totalAmount":1519,"stationID":"001"}
======================================================================================================================================================
2019-09-19 08:48:24	service: /HosApp/alpha/?/verifyPayment	data: {"hospitalNumber":"1991478","invoiceList":[{"invoiceId":"897097"}],"totalAmount":1519,"stationID":"001"}
======================================================================================================================================================
2019-09-19 08:49:14	service: /HosApp/alpha/?/paymentList	data: {"hospitalNumber":"0454728","language":"EN","citizenId":"1234567891234"}
======================================================================================================================================================
2019-09-19 08:49:32	service: /HosApp/alpha/?/paymentList	data: {"hospitalNumber":"0454728","language":"TH","citizenId":"1234567891234"}
======================================================================================================================================================
2019-09-19 08:49:43	service: /HosApp/alpha/?/paymentList	data: {"hospitalNumber":"1991478","language":"TH","citizenId":"1234567891234"}
======================================================================================================================================================
2019-09-19 08:49:57	service: /HosApp/alpha/?/paymentList	data: {"hospitalNumber":"1991478","language":"TH","citizenId":"1234567891234"}
======================================================================================================================================================
2019-09-19 08:50:11	service: /HosApp/alpha/?/paymentList	data: {"hospitalNumber":"1991478","language":"TH","citizenId":"1234567891234"}
======================================================================================================================================================
2019-09-19 08:51:39	service: /HosApp/alpha/?/paymentList	data: {"hospitalNumber":"1991478","language":"TH","citizenId":"2939900010238"}
======================================================================================================================================================
2019-09-19 11:46:19	service: /HosApp/alpha/?/verifyPayment	data: {"hospitalNumber":"1991478","invoiceList":[{"invoiceId":"897097"}],"totalAmount":1519,"stationID":"001"}
======================================================================================================================================================
2019-09-19 11:46:24	service: /HosApp/alpha/?/verifyPayment	data: {"hospitalNumber":"1991478","invoiceList":[{"invoiceId":"897097"}],"totalAmount":1519,"stationID":"001"}
======================================================================================================================================================
2019-09-19 11:46:38	service: /HosApp/alpha/?/verifyPayment	data: {"hospitalNumber":"1991478","invoiceList":[{"invoiceId":"897097"}],"totalAmount":1519,"stationID":"001"}
======================================================================================================================================================
2019-09-19 13:18:51	service: /HosApp/alpha/?/requestPaymentNotification	data: {"invoice":{"citizenId":"3901100693846","hospitalNumber":"0660365","invoiceId":"429128","invoiceDateTime":"2018-05-1416:20:09","performDate":"2018-05-29","payable":true,"moreDetail":"รายละเอียดเพิ่มเติมในการแจ้งชำระเงิน","eligible":"พนักงานธนาคารไทยพาณิชย์","remark":"กรณีเก็บเงินไม่ได้กรุณาติดต่อการเงิน","doctor":"DoctorA","clinic":"ClinicB","serviceDeliveryLocationCode":"01","serviceDeliveryLocationName":"ServiceA"},"billList":[{"billName":"ค่ายา","amountInRight":3711,"amountOverRight":9314,"roundOff":0,"performStatus":true}]}
======================================================================================================================================================
2019-09-19 13:18:59	service: /HosApp/alpha/?/requestPaymentNotification	data: {"invoice":{"citizenId":"3810100710945","hospitalNumber":"0711336","invoiceId":"605852","invoiceDateTime":"2018-04-0522:23:04","performDate":"2018-09-18","payable":true,"moreDetail":"รายละเอียดเพิ่มเติมในการแจ้งชำระเงิน","eligible":"โครงการฟันเทียมพระราชทาน","remark":"กรณีเก็บเงินไม่ได้กรุณาติดต่อการเงิน","doctor":"DoctorB","clinic":"ClinicD","serviceDeliveryLocationCode":"01","serviceDeliveryLocationName":"ServiceA"},"billList":[{"billName":"ค่าบริการทางแพทย์","amountInRight":2653,"amountOverRight":2676,"roundOff":0,"performStatus":true}]}
======================================================================================================================================================
2019-09-19 14:01:36	service: /HosApp/alpha/?/requestPaymentNotification	data: {"invoice":{"citizenId":"3919900155111","hospitalNumber":"1424829","invoiceId":"168229","invoiceDateTime":"2018-01-0214:38:42","performDate":"2018-12-05","payable":true,"moreDetail":"รายละเอียดเพิ่มเติมในการแจ้งชำระเงิน","eligible":"สุขภาพถ้วนหน้ามะเร็งสปสช.","remark":"กรณีเก็บเงินไม่ได้กรุณาติดต่อการเงิน","doctor":"DoctorE","clinic":"ClinicC","serviceDeliveryLocationCode":"03","serviceDeliveryLocationName":"ServiceC"},"billList":[{"billName":"ค่าบริการทางแพทย์","amountInRight":5753,"amountOverRight":8540,"roundOff":0,"performStatus":true}]}
======================================================================================================================================================
2019-09-19 15:00:55	service: /HosApp/alpha/?/verifyPayment	data: {"hospitalNumber":"1991478","invoiceList":[{"invoiceId":"897097"}],"totalAmount":1519,"stationID":"001"}
======================================================================================================================================================
2019-09-19 15:38:45	service: /HosApp/alpha/?/verifyPayment	data: {"hospitalNumber":"1991478","invoiceList":[{"invoiceId":"897097"}],"totalAmount":1519,"stationID":"001"}
======================================================================================================================================================
2019-09-19 15:40:09	service: /HosApp/alpha/?/verifyPayment	data: {"hospitalNumber":"1991478","invoiceList":[{"invoiceId":"897097"}],"totalAmount":1519,"stationID":"001"}
======================================================================================================================================================
2019-09-19 15:40:25	service: /HosApp/alpha/?/paymentList	data: {"hospitalNumber":"1991478","language":"TH","citizenId":"2939900010238"}
======================================================================================================================================================
2019-09-19 15:40:47	service: /HosApp/alpha/?/verifyPayment	data: {"hospitalNumber":"1991478","invoiceList":[{"invoiceId":"897097"}],"totalAmount":1519,"stationID":"001"}
======================================================================================================================================================
2019-09-19 15:41:47	service: /HosApp/alpha/?/verifyPayment	data: {"hospitalNumber":"1991478","invoiceList":[{"invoiceId":"897097"}],"totalAmount":1519,"stationID":"001"}
======================================================================================================================================================
2019-09-19 15:42:38	service: /HosApp/alpha/?/verifyPayment	data: {"hospitalNumber":"1991478","invoiceList":[{"invoiceId":"897097"}],"totalAmount":1519,"stationID":"001"}
======================================================================================================================================================
2019-09-19 15:42:44	service: /HosApp/alpha/?/verifyPayment	data: {"hospitalNumber":"1991478","invoiceList":[{"invoiceId":"897097fdgdfg"}],"totalAmount":1519,"stationID":"001"}
======================================================================================================================================================
2019-09-19 15:42:52	service: /HosApp/alpha/?/verifyPayment	data: {"hospitalNumber":"1991478","invoiceList":[{"invoiceId":"897097"}],"totalAmount":1519,"stationID":"001"}
======================================================================================================================================================
2019-09-19 15:43:01	service: /HosApp/alpha/?/verifyPayment	data: {"hospitalNumber":"1991478","invoiceList":[{"invoiceId":"897097"}],"totalAmount":1519,"stationID":"001"}
======================================================================================================================================================
2019-09-19 15:43:13	service: /HosApp/alpha/?/verifyPayment	data: {"hospitalNumber":"1991478","invoiceList":[{"invoiceId":"897097"}],"totalAmount":1519,"stationID":"001"}
======================================================================================================================================================
2019-09-19 15:52:25	service: /HosApp/alpha/?/requestPaymentNotification	data: {"invoice":{"citizenId":"3909800776008","hospitalNumber":"0018626","invoiceId":"0018626201909191550","invoiceDateTime":"2019-09-1915:50:59","performDate":"2019-09-19","payable":true,"moreDetail":"","eligible":"องค์กรปกครองส่วนท้องถิ่นเบิกจ่ายตรง","remark":"","doctor":"","clinic":"","serviceDeliveryLocationCode":"","serviceDeliveryLocationName":""},"billList":[{"billName":"ค่าตรวจวินิจฉัยทางเทคนิคการแพทย์และพยาธิวิทยา","amountInRight":0,"amountOverRight":100.00,"roundOff":0,"performStatus":true},{"billName":"ค่าตรวจวินิจฉัยทางเทคนิคการแพทย์และพยาธิวิทยา","amountInRight":0,"amountOverRight":40.00,"roundOff":0,"performStatus":true},{"billName":"ค่าตรวจวินิจฉัยทางเทคนิคการแพทย์และพยาธิวิทยา","amountInRight":0,"amountOverRight":150.00,"roundOff":0,"performStatus":true}]}
======================================================================================================================================================
2019-09-19 16:17:20	service: /HosApp/alpha/?/verifyPayment	data: {"hospitalNumber":"1991478","invoiceList":[{"invoiceId":"897097"}],"totalAmount":1519,"stationID":"001"}
======================================================================================================================================================
2019-09-19 16:17:23	service: /HosApp/alpha/?/paymentList	data: {"hospitalNumber":"1991478","language":"TH","citizenId":"2939900010238"}
======================================================================================================================================================
2019-09-19 16:20:08	service: /HosApp/alpha/?/paymentList	data: {"hospitalNumber":"1991478","language":"TH","citizenId":"2939900010238"}
======================================================================================================================================================
