2019-09-06 10:04:52	service: /HosApp/alpha/?/drugImage	data: {"hospitalNumber":"0454728","drugCode":"2681"}
======================================================================================================================================================
2019-09-06 10:05:42	service: /HosApp/alpha/?/drugImage	data: {"hospitalNumber":"0454728","drugCode":"2681"}
======================================================================================================================================================
2019-09-06 10:05:48	service: /HosApp/alpha/?/drugImage	data: {"hospitalNumber":"0454728","drugCode":"222"}
======================================================================================================================================================
2019-09-06 10:05:53	service: /HosApp/alpha/?/drugImage	data: {"hospitalNumber":"0454728","drugCode":"2681"}
======================================================================================================================================================
2019-09-06 10:06:23	service: /HosApp/alpha/?/drugImage	data: {"hospitalNumber":"0454728","drugCode":"2681"}
======================================================================================================================================================
2019-09-06 10:06:27	service: /HosApp/alpha/?/drugImage	data: {"hospitalNumber":"0454728","drugCode":"222"}
======================================================================================================================================================
2019-09-06 10:06:30	service: /HosApp/alpha/?/drugImage	data: {"hospitalNumber":"0454728","drugCode":""}
======================================================================================================================================================
2019-09-06 10:06:32	service: /HosApp/alpha/?/drugImage	data: {"hospitalNumber":"0454728","drugCode":"222"}
======================================================================================================================================================
2019-09-06 10:07:31	service: /HosApp/alpha/?/drugImage	data: {"hospitalNumber":"0454728","drugCode":"222"}
======================================================================================================================================================
2019-09-06 10:07:34	service: /HosApp/alpha/?/drugImage	data: {"hospitalNumber":"0454728","drugCode":"999"}
======================================================================================================================================================
2019-09-06 10:07:38	service: /HosApp/alpha/?/drugImage	data: {"hospitalNumber":"0454728","drugCode":"9999"}
======================================================================================================================================================
