2019-09-10 08:32:33	service: /HosApp/alpha/?/paymentList	data: {"hospitalNumber":"1991478","language":"TH","citizenId":"2939900010238"}
======================================================================================================================================================
2019-09-10 08:34:10	service: /HosApp/alpha/?/paymentList	data: {"hospitalNumber":"1991478","language":"TH","citizenId":"2939900010238"}
======================================================================================================================================================
2019-09-10 08:35:14	service: /HosApp/alpha/?/paymentList	data: {"hospitalNumber":"1991478","language":"TH","citizenId":"2939900010238"}
======================================================================================================================================================
2019-09-10 08:36:00	service: /HosApp/alpha/?/paymentList	data: {"hospitalNumber":"1991478","language":"TH","citizenId":"2939900010238"}
======================================================================================================================================================
2019-09-10 08:36:07	service: /HosApp/alpha/?/paymentList	data: {"hospitalNumber":"1991478","language":"TH","citizenId":"2939900010238"}
======================================================================================================================================================
2019-09-10 08:36:32	service: /HosApp/alpha/?/paymentList	data: {"hospitalNumber":"1991478","language":"TH","citizenId":"2939900010238"}
======================================================================================================================================================
2019-09-10 08:37:37	service: /HosApp/alpha/?/paymentList	data: {"hospitalNumber":"1991478","language":"TH","citizenId":"2939900010238"}
======================================================================================================================================================
2019-09-10 08:38:08	service: /HosApp/alpha/?/paymentList	data: {"hospitalNumber":"1991478","language":"TH","citizenId":"2939900010238"}
======================================================================================================================================================
2019-09-10 08:39:14	service: /HosApp/alpha/?/paymentList	data: {"hospitalNumber":"1991478","language":"TH","citizenId":"2939900010238"}
======================================================================================================================================================
2019-09-10 08:39:15	service: /HosApp/alpha/?/paymentList	data: {"hospitalNumber":"1991478","language":"TH","citizenId":"2939900010238"}
======================================================================================================================================================
2019-09-10 08:42:25	service: /HosApp/alpha/?/paymentList	data: {"hospitalNumber":"1991478","language":"TH","citizenId":"2939900010238"}
======================================================================================================================================================
2019-09-10 08:42:46	service: /HosApp/alpha/?/paymentList	data: {"hospitalNumber":"1991478","language":"TH","citizenId":"2939900010238"}
======================================================================================================================================================
2019-09-10 08:43:06	service: /HosApp/alpha/?/requestPaymentNotification	data: {"invoice":{"hospitalNumber":"1991478","invoiceId":"00002","invoiceDateTime":"2019-09-0411:15:11","performDate":"2019-09-04","payable":1,"moreDetail":"รายละเอียดเพิ่มเติมในการแจ้งชำระเงิน","eligible":"สิทธิการรักษา","remark":"หมายเหตุเพิ่มเติมกรณีเก็บเงินไม่ได้","doctor":"ชื่อผู้สั่ง","clinic":"ชื่อคลินิกที่สั่ง","serviceDeliveryLocationCode":"รหัสหน่วยตรวจ","serviceDeliveryLocationName":"ชื่อหน่วยตรวจ"},"billList":[{"billName":"1991478","amountInRight":500,"amountOverRight":100,"roundOff":0,"performStatus":1}]}
======================================================================================================================================================
2019-09-10 08:43:25	service: /HosApp/alpha/?/requestPaymentNotification	data: {"invoice":{"hospitalNumber":"1991478","invoiceId":"00003","invoiceDateTime":"2019-09-0411:15:11","performDate":"2019-09-04","payable":1,"moreDetail":"รายละเอียดเพิ่มเติมในการแจ้งชำระเงิน","eligible":"สิทธิการรักษา","remark":"หมายเหตุเพิ่มเติมกรณีเก็บเงินไม่ได้","doctor":"ชื่อผู้สั่ง","clinic":"ชื่อคลินิกที่สั่ง","serviceDeliveryLocationCode":"รหัสหน่วยตรวจ","serviceDeliveryLocationName":"ชื่อหน่วยตรวจ"},"billList":[{"billName":"1991478","amountInRight":1500,"amountOverRight":2100,"roundOff":0,"performStatus":1}]}
======================================================================================================================================================
2019-09-10 09:05:35	service: /HosApp/alpha/?/paymentList	data: {"hospitalNumber":"1991478","language":"TH","citizenId":"2939900010238"}
======================================================================================================================================================
2019-09-10 09:09:27	service: /HosApp/alpha/?/paymentList	data: {"hospitalNumber":"1991478","language":"TH","citizenId":"2939900010238"}
======================================================================================================================================================
2019-09-10 09:09:56	service: /HosApp/alpha/?/paymentList	data: {"hospitalNumber":"1991478","language":"TH","citizenId":"2939900010238"}
======================================================================================================================================================
2019-09-10 09:13:01	service: /HosApp/alpha/?/paymentList	data: {"hospitalNumber":"1991478","language":"TH","citizenId":"2939900010238"}
======================================================================================================================================================
2019-09-10 09:13:31	service: /HosApp/alpha/?/drugAllergy	data: {"hospitalNumber":"1852261","language":"TH"}
======================================================================================================================================================
2019-09-10 09:13:46	service: /HosApp/alpha/?/lastPrescription	data: {"hospitalNumber":"0400880","language":"TH"}
======================================================================================================================================================
2019-09-10 09:14:01	service: /HosApp/alpha/?/paymentList	data: {"hospitalNumber":"1991478","language":"TH","citizenId":"2939900010238"}
======================================================================================================================================================
2019-09-10 09:14:23	service: /HosApp/alpha/?/token	data: {"grantType":"client_credentials","clientId":"HosApp","hospitalNumber":"1852261"}
======================================================================================================================================================
2019-09-10 09:14:31	service: /HosApp/alpha/?/drugAllergy	data: {"hospitalNumber":"1852261","language":"TH"}
======================================================================================================================================================
2019-09-10 09:14:32	service: /HosApp/alpha/?/paymentList	data: {"hospitalNumber":"1991478","language":"TH","citizenId":"2939900010238"}
======================================================================================================================================================
2019-09-10 09:14:50	service: /HosApp/alpha/?/lastPrescription	data: {"hospitalNumber":"1852261","language":"TH"}
======================================================================================================================================================
2019-09-10 09:15:00	service: /HosApp/alpha/?/paymentList	data: {"hospitalNumber":"1991478","language":"TH","citizenId":"2939900010238"}
======================================================================================================================================================
2019-09-10 09:15:10	service: /HosApp/alpha/?/paymentList	data: {"hospitalNumber":"1991478","language":"TH","citizenId":"2939900010238"}
======================================================================================================================================================
2019-09-10 09:15:22	service: /HosApp/alpha/?/paymentList	data: {"hospitalNumber":"1991478","language":"TH","citizenId":"2939900010238"}
======================================================================================================================================================
2019-09-10 09:15:45	service: /HosApp/alpha/?/paymentList	data: {"hospitalNumber":"1991478","language":"TH","citizenId":"2939900010238"}
======================================================================================================================================================
2019-09-10 09:15:46	service: /HosApp/alpha/?/paymentList	data: {"hospitalNumber":"1991478","language":"TH","citizenId":"2939900010238"}
======================================================================================================================================================
2019-09-10 09:16:10	service: /HosApp/alpha/?/paymentList	data: {"hospitalNumber":"1991478","language":"TH","citizenId":"2939900010238"}
======================================================================================================================================================
2019-09-10 09:16:27	service: /HosApp/alpha/?/paymentList	data: {"hospitalNumber":"1991478","language":"TH","citizenId":"2939900010238"}
======================================================================================================================================================
2019-09-10 09:16:43	service: /HosApp/alpha/?/paymentList	data: {"hospitalNumber":"1991478","language":"TH","citizenId":"2939900010238"}
======================================================================================================================================================
2019-09-10 09:17:19	service: /HosApp/alpha/?/paymentList	data: {"hospitalNumber":"1991478","language":"TH","citizenId":"2939900010238"}
======================================================================================================================================================
2019-09-10 09:17:49	service: /HosApp/alpha/?/paymentList?page=2	data: {"hospitalNumber":"1991478","language":"TH","citizenId":"2939900010238"}
======================================================================================================================================================
2019-09-10 09:17:53	service: /HosApp/alpha/?/paymentList?page=1	data: {"hospitalNumber":"1991478","language":"TH","citizenId":"2939900010238"}
======================================================================================================================================================
2019-09-10 09:18:07	service: /HosApp/alpha/?/paymentList	data: {"hospitalNumber":"1991478","language":"TH","citizenId":"2939900010238"}
======================================================================================================================================================
2019-09-10 09:19:11	service: /HosApp/alpha/?/paymentList	data: {"hospitalNumber":"1991478","language":"TH","citizenId":"2939900010238"}
======================================================================================================================================================
2019-09-10 09:27:27	service: /HosApp/alpha/?/drugAllergy	data: {"hospitalNumber":"1852261","language":"TH"}
======================================================================================================================================================
2019-09-10 09:27:37	service: /HosApp/alpha/?/drugHistory	data: {"hospitalNumber":"0400880","language":"TH","docNo":"25/34","orderDate":"2019-09-05","periodFlag":"Last"}
======================================================================================================================================================
2019-09-10 09:40:31	service: /HosApp/alpha/?/requestPaymentNotification	data: {"invoice":{"hospitalNumber":"1991478","invoiceId":"00004","invoiceDateTime":"2019-09-0411:15:11","performDate":"2019-09-04","payable":1,"moreDetail":"รายละเอียดเพิ่มเติมในการแจ้งชำระเงิน","eligible":"สิทธิการรักษา","remark":"หมายเหตุเพิ่มเติมกรณีเก็บเงินไม่ได้","doctor":"ชื่อผู้สั่ง","clinic":"ชื่อคลินิกที่สั่ง","serviceDeliveryLocationCode":"รหัสหน่วยตรวจ","serviceDeliveryLocationName":"ชื่อหน่วยตรวจ"},"billList":[{"billName":"1991478","amountInRight":1500,"amountOverRight":2100,"roundOff":0,"performStatus":1}]}
======================================================================================================================================================
2019-09-10 09:41:46	service: /HosApp/alpha/?/requestPaymentNotification	data: {"invoice":{"hospitalNumber":"1991478","invoiceId":"00004","invoiceDateTime":"2019-09-0411:15:11","performDate":"2019-09-04","payable":1,"moreDetail":"รายละเอียดเพิ่มเติมในการแจ้งชำระเงิน","eligible":"สิทธิการรักษา","remark":"หมายเหตุเพิ่มเติมกรณีเก็บเงินไม่ได้","doctor":"ชื่อผู้สั่ง","clinic":"ชื่อคลินิกที่สั่ง","serviceDeliveryLocationCode":"รหัสหน่วยตรวจ","serviceDeliveryLocationName":"ชื่อหน่วยตรวจ"},"billList":[{"billName":"1991478","amountInRight":1500,"amountOverRight":2100,"roundOff":0,"performStatus":1}]}
======================================================================================================================================================
2019-09-10 09:52:43	service: /HosApp/alpha/?/requestPaymentNotification	data: {"invoice":{"citizenId":"2939900010238","hospitalNumber":"1991478","invoiceId":"00004","invoiceDateTime":"2019-09-0411:15:11","performDate":"2019-09-04","payable":1,"moreDetail":"รายละเอียดเพิ่มเติมในการแจ้งชำระเงิน","eligible":"สิทธิการรักษา","remark":"หมายเหตุเพิ่มเติมกรณีเก็บเงินไม่ได้","doctor":"ชื่อผู้สั่ง","clinic":"ชื่อคลินิกที่สั่ง","serviceDeliveryLocationCode":"รหัสหน่วยตรวจ","serviceDeliveryLocationName":"ชื่อหน่วยตรวจ"},"billList":[{"billName":"1991478","amountInRight":1500,"amountOverRight":2100,"roundOff":0,"performStatus":1}]}
======================================================================================================================================================
2019-09-10 09:53:09	service: /HosApp/alpha/?/requestPaymentNotification	data: {"invoice":{"citizenId":"2939900010238","hospitalNumber":"1991478","invoiceId":"00004","invoiceDateTime":"2019-09-0411:15:11","performDate":"2019-09-04","payable":1,"moreDetail":"รายละเอียดเพิ่มเติมในการแจ้งชำระเงิน","eligible":"สิทธิการรักษา","remark":"หมายเหตุเพิ่มเติมกรณีเก็บเงินไม่ได้","doctor":"ชื่อผู้สั่ง","clinic":"ชื่อคลินิกที่สั่ง","serviceDeliveryLocationCode":"รหัสหน่วยตรวจ","serviceDeliveryLocationName":"ชื่อหน่วยตรวจ"},"billList":[{"billName":"1991478","amountInRight":1500,"amountOverRight":2100,"roundOff":0,"performStatus":1}]}
======================================================================================================================================================
2019-09-10 09:54:29	service: /HosApp/alpha/?/paymentList	data: {"hospitalNumber":"1991478","language":"TH","citizenId":"2939900010238"}
======================================================================================================================================================
2019-09-10 09:56:05	service: /HosApp/alpha/?/paymentList	data: {"hospitalNumber":"1991478","language":"TH","citizenId":"2939900010238"}
======================================================================================================================================================
2019-09-10 09:56:14	service: /HosApp/alpha/?/patientHosAppSignup	data: {"hospitalNumber":"1111111","username":"Test","email":"blahblah@gmail.com"}
======================================================================================================================================================
2019-09-10 09:56:17	service: /HosApp/alpha/?/paymentList	data: {"hospitalNumber":"1991478","language":"TH","citizenId":"2939900010238"}
======================================================================================================================================================
2019-09-10 09:56:33	service: /HosApp/alpha/?/paymentList	data: {"hospitalNumber":"1991478","language":"TH","citizenId":"2939900010238"}
======================================================================================================================================================
2019-09-10 09:58:54	service: /HosApp/alpha/?/patientHosAppSignup	data: {"hospitalNumber":"1111111","username":"blah","email":"blahblah@gmail.com"}
======================================================================================================================================================
2019-09-10 10:02:09	service: /HosApp/alpha/?/paymentList	data: {"hospitalNumber":"1991478","language":"TH","citizenId":"2939900010238"}
======================================================================================================================================================
2019-09-10 10:02:57	service: /HosApp/alpha/?/paymentList	data: {"hospitalNumber":"1991478","language":"TH","citizenId":"2939900010238"}
======================================================================================================================================================
2019-09-10 10:03:43	service: /HosApp/alpha/?/paymentList	data: {"hospitalNumber":"1991478","language":"TH","citizenId":"2939900010238"}
======================================================================================================================================================
2019-09-10 10:04:13	service: /HosApp/alpha/?/paymentList	data: {"hospitalNumber":"1991478","language":"TH","citizenId":"2939900010238"}
======================================================================================================================================================
2019-09-10 10:04:32	service: /HosApp/alpha/?/patientHosAppSignup	data: {"hospitalNumber":"1111111","username":"blah","email":"blahblah@gmail.com"}
======================================================================================================================================================
2019-09-10 10:04:37	service: /HosApp/alpha/?/paymentList	data: {"hospitalNumber":"1991478","language":"TH","citizenId":"2939900010238"}
======================================================================================================================================================
2019-09-10 10:04:43	service: /HosApp/alpha/?/paymentList	data: {"hospitalNumber":"1991478","language":"TH","citizenId":"2939900010238"}
======================================================================================================================================================
2019-09-10 10:04:50	service: /HosApp/alpha/?/paymentList	data: {"hospitalNumber":"1991478","language":"TH","citizenId":"2939900010238"}
======================================================================================================================================================
2019-09-10 10:05:25	service: /HosApp/alpha/?/paymentList	data: {"hospitalNumber":"1991478","language":"TH","citizenId":"2939900010238"}
======================================================================================================================================================
2019-09-10 10:06:41	service: /HosApp/alpha/?/requestPaymentNotification	data: {"invoice":{"citizenId":"2939900010238","hospitalNumber":"1991478","invoiceId":"00004","invoiceDateTime":"2019-09-0411:15:11","performDate":"2019-09-04","payable":1,"moreDetail":"รายละเอียดเพิ่มเติมในการแจ้งชำระเงิน","eligible":"สิทธิการรักษา","remark":"หมายเหตุเพิ่มเติมกรณีเก็บเงินไม่ได้","doctor":"ชื่อผู้สั่ง","clinic":"ชื่อคลินิกที่สั่ง","serviceDeliveryLocationCode":"รหัสหน่วยตรวจ","serviceDeliveryLocationName":"ชื่อหน่วยตรวจ"},"billList":[{"billName":"1991478","amountInRight":1500,"amountOverRight":2100,"roundOff":0,"performStatus":1}]}
======================================================================================================================================================
2019-09-10 10:07:10	service: /HosApp/alpha/?/paymentList	data: {"hospitalNumber":"1991478","language":"TH","citizenId":"2939900010238"}
======================================================================================================================================================
2019-09-10 10:07:22	service: /HosApp/alpha/?/paymentList	data: {"hospitalNumber":"1991478","language":"TH","citizenId":"2939900010238"}
======================================================================================================================================================
2019-09-10 10:07:38	service: /HosApp/alpha/?/paymentList?	data: {"hospitalNumber":"1991478","language":"TH","citizenId":"2939900010238"}
======================================================================================================================================================
2019-09-10 10:07:42	service: /HosApp/alpha/?/paymentList	data: {"hospitalNumber":"1991478","language":"TH","citizenId":"2939900010238"}
======================================================================================================================================================
2019-09-10 10:09:38	service: /HosApp/alpha/?/paymentList	data: {"hospitalNumber":"1991478","language":"TH","citizenId":"2939900010238"}
======================================================================================================================================================
2019-09-10 11:53:21	service: /HosApp/alpha/?/token	data: {"grantType":"client_credentials","clientId":"HosApp","hospitalNumber":"1951946"}
======================================================================================================================================================
2019-09-10 11:53:29	service: /HosApp/alpha/?/patientProfile	data: {"hospitalNumber":"1951946","language":"TH"}
======================================================================================================================================================
2019-09-10 12:03:07	service: /HosApp/alpha/?/token	data: {"grantType":"client_credentials","clientId":"HosApp","hospitalNumber":"1273226"}
======================================================================================================================================================
2019-09-10 12:03:15	service: /HosApp/alpha/?/patientProfile	data: {"hospitalNumber":"1273226","language":"TH"}
======================================================================================================================================================
2019-09-10 13:25:00	service: /HosApp/alpha/?/drugAllergy	data: {"hospitalNumber":"1852261","language":"TH"}
======================================================================================================================================================
2019-09-10 13:36:04	service: /HosApp/alpha/?/token	data: {"grantType":"client_credentials","clientId":"HosApp","hospitalNumber":"0454728"}
======================================================================================================================================================
2019-09-10 13:36:10	service: /HosApp/alpha/?/drugAllergy	data: {"hospitalNumber":"0454728","language":"TH"}
======================================================================================================================================================
2019-09-10 13:41:17	service: /HosApp/alpha/?/drugAllergy	data: {"hospitalNumber":"0454728","language":"TH"}
======================================================================================================================================================
2019-09-10 13:54:58	service: /HosApp/alpha/?/drugAllergy	data: {"hospitalNumber":"0454728","language":"TH"}
======================================================================================================================================================
2019-09-10 13:55:02	service: /HosApp/alpha/?/lastPrescription	data: {"hospitalNumber":"0454728","language":"TH"}
======================================================================================================================================================
2019-09-10 14:06:30	service: /HosApp/alpha/?/token	data: {"grantType":"client_credentials","clientId":"HosApp","hospitalNumber":"0607277"}
======================================================================================================================================================
2019-09-10 14:06:42	service: /HosApp/alpha/?/patientProfile	data: {"hospitalNumber":"0607277","language":"TH"}
======================================================================================================================================================
2019-09-10 14:08:12	service: /HosApp/alpha/?/patientProfile	data: {"hospitalNumber":"0607277","language":"TH"}
======================================================================================================================================================
2019-09-10 14:08:45	service: /HosApp/alpha/?/token	data: {"grantType":"client_credentials","clientId":"HosApp","hospitalNumber":"0400880"}
======================================================================================================================================================
2019-09-10 14:08:55	service: /HosApp/alpha/?/patientProfile	data: {"hospitalNumber":"0400880","language":"TH"}
======================================================================================================================================================
2019-09-10 14:09:22	service: /HosApp/alpha/?/token	data: {"grantType":"client_credentials","clientId":"HosApp","hospitalNumber":"0601262"}
======================================================================================================================================================
2019-09-10 14:09:29	service: /HosApp/alpha/?/patientProfile	data: {"hospitalNumber":"0601262","language":"TH"}
======================================================================================================================================================
2019-09-10 18:19:52	service: /HosApp/alpha/?/patientProfile	data: {"hospitalNumber":"0601262","language":"TH"}
======================================================================================================================================================
2019-09-10 18:21:02	service: /HosApp/alpha/?/patientProfile	data: {"hospitalNumber":"0601262","language":"TH"}
======================================================================================================================================================
2019-09-10 18:24:55	service: /HosApp/alpha/?/patientProfile	data: {"hospitalNumber":"0601262","language":"TH"}
======================================================================================================================================================
2019-09-10 18:26:23	service: /HosApp/alpha/?/token	data: {"grantType":"client_credentials","clientId":"HosApp","hospitalNumber":"0454728"}
======================================================================================================================================================
2019-09-10 18:26:33	service: /HosApp/alpha/?/patientProfile	data: {"hospitalNumber":"0454728","language":"TH"}
======================================================================================================================================================
2019-09-10 18:27:01	service: /HosApp/alpha/?/patientProfile	data: {"hospitalNumber":"0454728","language":"TH"}
======================================================================================================================================================
2019-09-10 18:30:10	service: /HosApp/alpha/?/patientProfile	data: {"hospitalNumber":"0454728","language":"TH"}
======================================================================================================================================================
2019-09-10 18:30:37	service: /HosApp/alpha/?/token	data: {"grantType":"client_credentials","clientId":"HosApp","hospitalNumber":"0454728"}
======================================================================================================================================================
2019-09-10 18:30:51	service: /HosApp/alpha/?/patientProfile	data: {"hospitalNumber":"0454728","language":"TH"}
======================================================================================================================================================
2019-09-10 18:35:51	service: /HosApp/alpha/?/patientProfile	data: {"hospitalNumber":"0454728","language":"TH"}
======================================================================================================================================================
2019-09-10 18:36:36	service: /HosApp/alpha/?/patientProfile	data: {"hospitalNumber":"0454728","language":"TH"}
======================================================================================================================================================
2019-09-10 18:36:37	service: /HosApp/alpha/?/patientProfile	data: {"hospitalNumber":"0454728","language":"TH"}
======================================================================================================================================================
2019-09-10 18:38:00	service: /HosApp/alpha/?/patientProfile	data: {"hospitalNumber":"0454728","language":"TH"}
======================================================================================================================================================
2019-09-10 18:38:24	service: /HosApp/alpha/?/medicalWelfares	data: {"hospitalNumber":"0454728","language":"TH"}
======================================================================================================================================================
