11:53:44	[refresh] status: 1, expiresDateTime: 20190916 115839
11:53:44	[error] status: false
11:54:24	[refresh] status: 1, expiresDateTime: 20190916 115920
11:56:29	[refresh] status: 1, expiresDateTime: 20190916 120124
11:56:29	[refresh] status: 1, expiresDateTime: 20190916 120125
11:58:32	[refresh] status: 1, expiresDateTime: 20190916 120327
11:58:32	[refresh] status: 1, expiresDateTime: 20190916 120327
11:59:11	[refresh] status: 1, expiresDateTime: 20190916 120406
11:59:11	[refresh] status: 1, expiresDateTime: 20190916 120406
11:59:56	[refresh] status: 1, expiresDateTime: 20190916 120451
11:59:56	[refresh] status: 1, expiresDateTime: 20190916 120452
